# X Y cord data
210 282
195 302
175 322
171 278
180 370
157 277
138 141
261 314
227 196
188 97
161 40
141 22
123 22
113 36
103 71
93 117
89 188
90 258
102 317
119 381
143 421
173 450
218 459
250 446
270 412
281 374
287 346
289 295
283 242
276 181
266 143
252 119
242 123
241 151
254 176
280 201
305 205
320 197
338 176
337 198
348 206
362 206
375 201
380 220
385 241
397 241
425 210
493 127
